module todo-assignment

go 1.13

require (
	github.com/alecthomas/template v0.0.0-20190718012654-fb15b899a751
	github.com/cpuguy83/go-md2man/v2 v2.0.1 // indirect
	github.com/gin-gonic/gin v1.7.2
	github.com/go-openapi/jsonreference v0.19.6 // indirect
	github.com/go-openapi/spec v0.20.3 // indirect
	github.com/go-openapi/swag v0.19.15 // indirect
	github.com/go-playground/validator/v10 v10.7.0 // indirect
	github.com/go-sql-driver/mysql v1.6.0
	github.com/golang/protobuf v1.5.2 // indirect
	github.com/jinzhu/gorm v1.9.16
	github.com/json-iterator/go v1.1.11 // indirect
	github.com/leodido/go-urn v1.2.1 // indirect
	github.com/mailru/easyjson v0.7.7 // indirect
	github.com/mattn/go-isatty v0.0.13 // indirect
	github.com/stretchr/objx v0.3.0 // indirect
	github.com/stretchr/testify v1.7.0
	github.com/swaggo/files v0.0.0-20190704085106-630677cd5c14
	github.com/swaggo/gin-swagger v1.3.0
	github.com/swaggo/http-swagger v1.0.0 // indirect
	github.com/swaggo/swag v1.7.0
	github.com/ugorji/go v1.2.6 // indirect
	golang.org/x/crypto v0.0.0-20210711020723-a769d52b0f97 // indirect
	golang.org/x/net v0.0.0-20210716203947-853a461950ff // indirect
	golang.org/x/sys v0.0.0-20210630005230-0f9fa26af87c // indirect
	golang.org/x/tools v0.1.5 // indirect
	google.golang.org/protobuf v1.27.1 // indirect
	gopkg.in/yaml.v3 v3.0.0-20210107192922-496545a6307b // indirect
)
